…
SELECT year, category, avg_catrespTime, rank_cat
FROM (SELECT year, category, avg_catrespTime, 
       RANK() OVER(PARTITION BY year ORDER BY avg_catrespTime DESC) AS rank_cat
       FROM cte_respTimeCat
       WHERE avg_catrespTime != 0 AND avg_catrespTime < 525600 
) -- response time within the created_date year
WHERE rank_cat <= 10
```

``` r
respTimeCat_long
```

    ## # A tibble: 30 × 4
    ##    year                category                         avg_catrespTime rank_cat
    ##    <dttm>              <chr>                                      <dbl>    <int>
    ##  1 2019-01-01 00:00:00 General Request - OCC                    519120.        1
    ##  2 2019-01-01 00:00:00 General Request - ETHICS COMMIS…         501643.        2
    ##  3 2019-01-01 00:00:00 Temporary Sign Request                   478375.        3
    ##  4 2019-01-01 00:00:00 General Request - DTIS                   391281.        4
    ##  5 2019-01-01 00:00:00 General Request - SHERIFF                341862.        5
    ##  6 2019-01-01 00:00:00 General Request - ADULT PROBATI…         324173         6
    ##  7 2019-01-01 00:00:00 General Request - MOCD                   313976.        7
    ##  8 2019-01-01 00:00:00 General Request - FIRE DEPARTME…         306103.        8
    ##  9 2019-01-01 00:00:00 General Request - STATUS OF WOM…         301008         9
    ## 10 2019-01-01 00:00:00 General Request - CONTRACT ADMI…         299885.       10
    ## # … with 20 more rows
…
SELECT year, category, avg_catrespTime, rank_cat
FROM (SELECT year, category, avg_catrespTime, 
       RANK() OVER(PARTITION BY year ORDER BY avg_catrespTime ASC) AS rank_cat
       FROM cte_respTimeCat
       WHERE avg_catrespTime != 0 AND avg_catrespTime < 525600 
       -- response time within the created_date year
)
WHERE rank_cat <= 10
```

``` r
respTimeCat_short
```

    ## # A tibble: 30 × 4
    ##    year                category                         avg_catrespTime rank_cat
    ##    <dttm>              <chr>                                      <dbl>    <int>
    ##  1 2020-01-01 00:00:00 General Request - PUBLIC DEFEND…              4         1
    ##  2 2020-01-01 00:00:00 General Request - GRANTS FOR TH…              7         2
    ##  3 2020-01-01 00:00:00 General Request - ADULT PROBATI…             23         3
    ##  4 2020-01-01 00:00:00 General Request - ANIMAL CARE C…           1237.        4
    ##  5 2020-01-01 00:00:00 General Request - HUMAN RIGHTS …           1480.        5
    ##  6 2020-01-01 00:00:00 Parking Enforcement                        1850.        6
    ##  7 2020-01-01 00:00:00 General Request - AGING ADULT S…           2769         7
    ##  8 2020-01-01 00:00:00 General Request - FILM COMMISSI…           3151.        8
    ##  9 2020-01-01 00:00:00 General Request - AIRPORT SFO              3332         9
    ## 10 2020-01-01 00:00:00 General Request - HUMAN SERVICE…           3814.       10
    ## # … with 20 more rows
…
